{
  "images": [
    {
      "filename": "personalDefault.png",
      "idiom": "universal",
      "scale": "1x"
    },
    {
      "filename": "personalDefault@2x.png",
      "idiom": "universal",
      "scale": "2x"
    },
    {
      "filename": "personalDefault@3x.png",
      "idiom": "universal",
      "scale": "3x"
    }
  ],
  "info": {
    "author": "xcode",
    "version": 1
  }
}
